{
  "float": [
    {
      "class": "pop-shell-example",
      "title": "pop-shell-example"
    },
    {
      "class": "VirtualBox Machine"
    },
    {
      "class": "adwaita-steam-gtk"
    },
    {
      "class": "collector"
    }
  ],
  "skiptaskbarhidden": [],
  "log_on_focus": false
}